../Core/Src/stm32f0xx_hal_msp.c:64:6:HAL_MspInit	16	static
../Core/Src/stm32f0xx_hal_msp.c:90:6:HAL_TIM_Base_MspInit	24	static
../Core/Src/stm32f0xx_hal_msp.c:115:6:HAL_TIM_Base_MspDeInit	16	static
../Core/Src/stm32f0xx_hal_msp.c:140:6:HAL_UART_MspInit	56	static
../Core/Src/stm32f0xx_hal_msp.c:176:6:HAL_UART_MspDeInit	16	static
